{
  "hotelId": "mch",
  "vhSiteKey": "esp_mch",
  "version":{
    "number": 1
  },
  "hotelGroup": {
    "hotelGroupId": "mchotels"
  },
  "coordinates": {
    "lat": 36.506523,
    "long": -4.919101
  },
  "meta":{
    "createdAt": "2014-11-01T00:00:00+00:00"
  },
  "publishing" : {
    "startDate" : "2014-11-01T00:00:00+00:00",
    "endDate"   : "2015-11-06T00:00:00+00:00",
    "published" : true
  },
  "categoryIds": [ "reg-eur-sp", "ex-bch", "ex-din", "ex-glf", "ex-rmc", "ex-spa"],
  "localized": [
    {
      "language": "en_GB",
      "name": "Marbella Club Hotel",
      "location": {
        "city": "Marabella",
        "country": "Spain",
        "fullAddress" : "Bulevar Principe Alfonso von Hohenlohe, 29600 Marbella, Spain",
        "shortAddress": "Golden Mile, Marbella, Spain"
      },
      "contacts":{
        "primary": {
          "phone" : "+34 95 282 2211",
          "email" : "hotel@marbellaclub.com",
          "website" : "http://www.marbellaclub.com"
        }

      },

      "description": [
        {
          "heading": [{ "style": null, "value": "Overview"}],
          "text": [ { "style": null, "value": "Southern Spain's uncontested Grande Dame with stunning gardens, elegant guest rooms and beautiful beaches.\n\nCertainly the most glamorous hotel on the Iberian Peninsula, the Marbella Club was a pioneer of ‘barefoot luxury’ when opened in the 1950s by Prince Alfonso von Hohenlohe, who wanted to share Marbella’s unique climate and relaxed way of life with fellow members of the international set. Traditional Andalusian architecture combine with the immaculately tended mature gardens to create an utterly unspoiled refuge that has seduced visiting royalty, actors; musicians, sporting personalities, heads of state and high living aristocrats. In recent years the Marbella Club has acquired a modern thalasso spa, a Dave Thomas designed golf course, an equestrian center and a world-class shopping gallery. In facilities it is the equal of any international resort, but in terms of charm and character it is in a league of its own. View Event Venues Information.\nProperty Highlights"}]
        },
        {
          "heading": [{ "style": null, "value": "Location"}],
          "text": [ { "style": null, "value": "Featuring lush tropical gardens stretching down to the beach, the resort is in the heart of the “Golden Mile,” near historic Marbella on Spain’s Costa del Sol."}]
        },
        {
          "heading": [{ "style": null, "value": "Dining"}],
          "text": [ { "style": null, "value": "Choose from nine bars and restaurants including an opulent Champagne bar, lavish beachfront buffet, romantic grill restaurant and trendy café."}]
        },
        {
          "heading": [{ "style": null, "value": "Spa"}],
          "text": [ { "style": null, "value": "The renowned beachfront Thalasso Spa includes a dynamic indoor sea water pool, Turkish steam baths, saunas, a solarium and 12 treatment rooms."}]
        }
      ]
    }
  ]
}